info face=fontNUMBERS size=18 bold=0 italic=0 charset= unicode= stretchH=100 smooth=1 aa=1 padding=2,2,2,2 spacing=0,0 outline=0
common lineHeight=21 base=16 scaleW=97 scaleH=294 pages=1 packed=0
page id=0 file="fontNUMBERS.png"
chars count=96
char id=33 x=2 y=2 width=3 height=13 xoffset=1 yoffset=4 xadvance=4 page=0 chnl=15
char id=36 x=2 y=17 width=27 height=13 xoffset=0 yoffset=3 xadvance=27 page=0 chnl=15
char id=42 x=7 y=2 width=33 height=10 xoffset=0 yoffset=6 xadvance=33 page=0 chnl=15
char id=43 x=2 y=32 width=10 height=10 xoffset=0 yoffset=5 xadvance=10 page=0 chnl=15
char id=44 x=2 y=44 width=2 height=5 xoffset=0 yoffset=15 xadvance=3 page=0 chnl=15
char id=45 x=2 y=51 width=10 height=2 xoffset=0 yoffset=9 xadvance=10 page=0 chnl=15
char id=46 x=6 y=44 width=3 height=3 xoffset=0 yoffset=13 xadvance=3 page=0 chnl=15
char id=48 x=2 y=55 width=9 height=16 xoffset=0 yoffset=0 xadvance=11 page=0 chnl=15
char id=49 x=2 y=73 width=6 height=16 xoffset=0 yoffset=0 xadvance=8 page=0 chnl=15
char id=50 x=2 y=91 width=9 height=16 xoffset=0 yoffset=0 xadvance=11 page=0 chnl=15
char id=51 x=10 y=73 width=9 height=16 xoffset=0 yoffset=0 xadvance=10 page=0 chnl=15
char id=52 x=13 y=55 width=9 height=16 xoffset=0 yoffset=0 xadvance=11 page=0 chnl=15
char id=53 x=14 y=32 width=9 height=16 xoffset=0 yoffset=0 xadvance=10 page=0 chnl=15
char id=54 x=2 y=109 width=9 height=16 xoffset=0 yoffset=0 xadvance=10 page=0 chnl=15
char id=55 x=2 y=127 width=8 height=16 xoffset=0 yoffset=0 xadvance=10 page=0 chnl=15
char id=56 x=2 y=145 width=9 height=16 xoffset=0 yoffset=0 xadvance=10 page=0 chnl=15
char id=57 x=12 y=127 width=9 height=16 xoffset=0 yoffset=0 xadvance=10 page=0 chnl=15
char id=58 x=13 y=91 width=3 height=8 xoffset=0 yoffset=8 xadvance=4 page=0 chnl=15
char id=59 x=13 y=101 width=3 height=9 xoffset=0 yoffset=10 xadvance=4 page=0 chnl=15
char id=61 x=13 y=112 width=10 height=5 xoffset=0 yoffset=8 xadvance=10 page=0 chnl=15
char id=63 x=18 y=91 width=8 height=13 xoffset=1 yoffset=4 xadvance=9 page=0 chnl=15
char id=64 x=21 y=73 width=13 height=10 xoffset=3 yoffset=6 xadvance=19 page=0 chnl=15
char id=65 x=24 y=50 width=8 height=10 xoffset=0 yoffset=6 xadvance=9 page=0 chnl=15
char id=66 x=25 y=32 width=8 height=10 xoffset=0 yoffset=6 xadvance=9 page=0 chnl=15
char id=67 x=31 y=14 width=10 height=10 xoffset=0 yoffset=6 xadvance=10 page=0 chnl=15
char id=68 x=42 y=2 width=9 height=10 xoffset=0 yoffset=6 xadvance=9 page=0 chnl=15
char id=69 x=34 y=44 width=8 height=10 xoffset=0 yoffset=6 xadvance=8 page=0 chnl=15
char id=70 x=34 y=56 width=7 height=10 xoffset=0 yoffset=6 xadvance=7 page=0 chnl=15
char id=71 x=35 y=26 width=10 height=10 xoffset=0 yoffset=6 xadvance=10 page=0 chnl=15
char id=72 x=43 y=14 width=8 height=10 xoffset=0 yoffset=6 xadvance=9 page=0 chnl=15
char id=73 x=2 y=163 width=2 height=10 xoffset=0 yoffset=6 xadvance=3 page=0 chnl=15
char id=74 x=2 y=175 width=7 height=10 xoffset=0 yoffset=6 xadvance=8 page=0 chnl=15
char id=75 x=6 y=163 width=8 height=10 xoffset=0 yoffset=7 xadvance=9 page=0 chnl=15
char id=76 x=13 y=145 width=8 height=10 xoffset=0 yoffset=6 xadvance=8 page=0 chnl=15
char id=77 x=2 y=187 width=11 height=10 xoffset=0 yoffset=6 xadvance=11 page=0 chnl=15
char id=78 x=11 y=175 width=8 height=10 xoffset=0 yoffset=6 xadvance=9 page=0 chnl=15
char id=79 x=16 y=157 width=10 height=10 xoffset=0 yoffset=6 xadvance=10 page=0 chnl=15
char id=80 x=23 y=119 width=8 height=10 xoffset=0 yoffset=6 xadvance=9 page=0 chnl=15
char id=81 x=23 y=131 width=10 height=13 xoffset=0 yoffset=6 xadvance=11 page=0 chnl=15
char id=82 x=25 y=106 width=9 height=10 xoffset=0 yoffset=6 xadvance=10 page=0 chnl=15
char id=83 x=33 y=118 width=8 height=10 xoffset=0 yoffset=6 xadvance=8 page=0 chnl=15
char id=84 x=28 y=85 width=8 height=10 xoffset=0 yoffset=6 xadvance=8 page=0 chnl=15
char id=85 x=36 y=68 width=7 height=10 xoffset=0 yoffset=6 xadvance=8 page=0 chnl=15
char id=86 x=43 y=56 width=8 height=10 xoffset=0 yoffset=6 xadvance=9 page=0 chnl=15
char id=87 x=44 y=38 width=11 height=10 xoffset=0 yoffset=6 xadvance=12 page=0 chnl=15
char id=88 x=47 y=26 width=9 height=10 xoffset=0 yoffset=6 xadvance=9 page=0 chnl=15
char id=89 x=36 y=97 width=9 height=10 xoffset=0 yoffset=6 xadvance=9 page=0 chnl=15
char id=90 x=38 y=80 width=8 height=10 xoffset=0 yoffset=7 xadvance=8 page=0 chnl=15
char id=95 x=24 y=68 width=10 height=2 xoffset=0 yoffset=16 xadvance=10 page=0 chnl=15
char id=97 x=45 y=68 width=8 height=10 xoffset=0 yoffset=6 xadvance=9 page=0 chnl=15
char id=98 x=53 y=50 width=8 height=10 xoffset=0 yoffset=6 xadvance=9 page=0 chnl=15
char id=99 x=57 y=38 width=10 height=10 xoffset=0 yoffset=6 xadvance=10 page=0 chnl=15
char id=100 x=53 y=2 width=9 height=10 xoffset=0 yoffset=6 xadvance=9 page=0 chnl=15
char id=101 x=53 y=14 width=8 height=10 xoffset=0 yoffset=6 xadvance=8 page=0 chnl=15
char id=102 x=58 y=26 width=7 height=10 xoffset=0 yoffset=6 xadvance=7 page=0 chnl=15
char id=103 x=63 y=14 width=10 height=10 xoffset=0 yoffset=6 xadvance=10 page=0 chnl=15
char id=104 x=67 y=26 width=8 height=10 xoffset=0 yoffset=6 xadvance=9 page=0 chnl=15
char id=105 x=64 y=2 width=2 height=10 xoffset=0 yoffset=6 xadvance=3 page=0 chnl=15
char id=106 x=68 y=2 width=7 height=10 xoffset=0 yoffset=6 xadvance=8 page=0 chnl=15
char id=107 x=75 y=14 width=8 height=10 xoffset=0 yoffset=7 xadvance=9 page=0 chnl=15
char id=108 x=77 y=2 width=8 height=10 xoffset=0 yoffset=6 xadvance=8 page=0 chnl=15
char id=109 x=2 y=199 width=11 height=10 xoffset=0 yoffset=6 xadvance=11 page=0 chnl=15
char id=110 x=2 y=211 width=8 height=10 xoffset=0 yoffset=6 xadvance=9 page=0 chnl=15
char id=111 x=2 y=223 width=10 height=10 xoffset=0 yoffset=6 xadvance=10 page=0 chnl=15
char id=112 x=12 y=211 width=8 height=10 xoffset=0 yoffset=6 xadvance=9 page=0 chnl=15
char id=113 x=15 y=187 width=10 height=13 xoffset=0 yoffset=6 xadvance=11 page=0 chnl=15
char id=114 x=21 y=169 width=9 height=10 xoffset=0 yoffset=6 xadvance=10 page=0 chnl=15
char id=115 x=28 y=146 width=8 height=10 xoffset=0 yoffset=6 xadvance=8 page=0 chnl=15
char id=116 x=35 y=130 width=8 height=10 xoffset=0 yoffset=6 xadvance=8 page=0 chnl=15
char id=117 x=43 y=109 width=7 height=10 xoffset=0 yoffset=6 xadvance=8 page=0 chnl=15
char id=118 x=47 y=92 width=8 height=10 xoffset=0 yoffset=6 xadvance=9 page=0 chnl=15
char id=119 x=48 y=80 width=11 height=10 xoffset=0 yoffset=6 xadvance=12 page=0 chnl=15
char id=120 x=55 y=62 width=9 height=10 xoffset=0 yoffset=6 xadvance=9 page=0 chnl=15
char id=121 x=63 y=50 width=9 height=10 xoffset=0 yoffset=6 xadvance=9 page=0 chnl=15
char id=122 x=69 y=38 width=8 height=10 xoffset=0 yoffset=7 xadvance=8 page=0 chnl=15
char id=160 x=33 y=130 width=0 height=0 xoffset=0 yoffset=16 xadvance=3 page=0 chnl=15
char id=162 x=2 y=235 width=15 height=12 xoffset=0 yoffset=7 xadvance=16 page=0 chnl=15
char id=163 x=28 y=158 width=14 height=9 xoffset=0 yoffset=9 xadvance=14 page=0 chnl=15
char id=173 x=35 y=142 width=10 height=2 xoffset=0 yoffset=9 xadvance=10 page=0 chnl=15
char id=196 x=45 y=121 width=8 height=13 xoffset=0 yoffset=3 xadvance=9 page=0 chnl=15
char id=203 x=52 y=104 width=8 height=13 xoffset=0 yoffset=3 xadvance=8 page=0 chnl=15
char id=207 x=61 y=74 width=7 height=13 xoffset=0 yoffset=3 xadvance=6 page=0 chnl=15
char id=214 x=61 y=89 width=10 height=13 xoffset=0 yoffset=3 xadvance=10 page=0 chnl=15
char id=220 x=70 y=62 width=8 height=13 xoffset=0 yoffset=3 xadvance=8 page=0 chnl=15
char id=228 x=79 y=26 width=8 height=13 xoffset=0 yoffset=3 xadvance=9 page=0 chnl=15
char id=235 x=79 y=41 width=8 height=13 xoffset=0 yoffset=3 xadvance=8 page=0 chnl=15
char id=239 x=87 y=2 width=7 height=13 xoffset=0 yoffset=3 xadvance=6 page=0 chnl=15
char id=246 x=2 y=249 width=10 height=13 xoffset=0 yoffset=3 xadvance=10 page=0 chnl=15
char id=252 x=2 y=264 width=8 height=13 xoffset=0 yoffset=3 xadvance=8 page=0 chnl=15
char id=255 x=2 y=279 width=9 height=13 xoffset=0 yoffset=3 xadvance=9 page=0 chnl=15
char id=894 x=23 y=146 width=3 height=9 xoffset=0 yoffset=10 xadvance=4 page=0 chnl=15
char id=8211 x=74 y=56 width=10 height=2 xoffset=0 yoffset=9 xadvance=10 page=0 chnl=15
char id=8212 x=45 y=136 width=10 height=2 xoffset=0 yoffset=9 xadvance=10 page=0 chnl=15
char id=8230 x=21 y=181 width=12 height=3 xoffset=0 yoffset=13 xadvance=13 page=0 chnl=15
char id=8470 x=70 y=77 width=15 height=10 xoffset=0 yoffset=6 xadvance=15 page=0 chnl=15
char id=8722 x=85 y=17 width=10 height=2 xoffset=0 yoffset=9 xadvance=10 page=0 chnl=15
char id=32 x=0 y=0 width=0 height=0 xoffset=0 yoffset=9 xadvance=3 page=0 chnl=15